[
    {
        "id": "1",
        "name": "Maharana Pratap Nagar",
        "state": "Bhopal"
    },
    {
        "id": "2",
        "name": "Geeta Bhawan Square",
        "state": "Indore"
    },
	 {
        "id": "3",
        "name": "Saket",
        "state": "Indore"
    },
    {
        "id": "4",
        "name": "Chandkheda",
        "state": "Ahmedabad"
    },
    {
        "id": "5",
        "name": "Camac Street",
        "state": "Kolkata"
    },
    {
        "id": "6",
        "name": "Ballygunge",
        "state": "Kolkata"
    },
    {
        "id": "7",
        "name": "Salt Lake City",
        "state": "Kolkata"
    },
    {
        "id": "8",
        "name": "Kalpana Chowk",
        "state": "Bhubaneshwar"
    },
    {
        "id": "9",
        "name": "Gulbai Tekra (CG Road)",
        "state": "Ahmedabad"
    },
    {
        "id": "10",
        "name": "Chandkheda",
        "state": "Ahmedabad"
    },
    {
        "id": "11",
        "name": "Bodakdev, S.G Highway",
        "state": "Ahmedabad"
    },
    {
        "id": "12",
        "name": "Bopal",
        "state": "Ahmedabad"
    },
    {
        "id": "13",
        "name": "Satellite",
        "state": "Ahmedabad"
    },
    {
        "id": "14",
        "name": "Maninagar",
        "state": "Ahmedabad"
    },
    {
        "id": "15",
        "name": "University Road",
        "state": "Rajkot"
    },
    {
        "id": "16",
        "name": "Porvorim",
        "state": "Goa"
    },
    {
        "id": "17",
        "name": "Powai",
        "state": "Mumbai"
    },
    {
        "id": "18",
        "name": "Navi Mumbai - Kharghar",
        "state": "Mumbai"
    },
	{
        "id": "19",
        "name": "Borivali",
        "state": "Mumbai"
    },
    {
        "id": "20",
        "name": "Mulund",
        "state": "Mumbai"
    },
    {
        "id": "21",
        "name": "Kalyan",
        "state": "Mumbai"
    },
    {
        "id": "22",
        "name": "Ghatkopar",
        "state": "Mumbai"
    },
    {
        "id": "23",
        "name": "Malad West",
        "state": "Mumbai"
    },
    {
        "id": "24",
        "name": "Dombivli",
        "state": "Mumbai"
    },
    {
        "id": "25",
        "name": "Andheri West",
        "state": "Mumbai"
    },
    {
        "id": "26",
        "name": "Thane West",
        "state": "Mumbai"
    },
    {
        "id": "27",
        "name": "Mumbai Central",
        "state": "Mumbai"
    },
    {
        "id": "28",
        "name": "Vasai",
        "state": "Mumbai"
    },
    {
        "id": "29",
        "name": "Navi Mumbai - Belapur",
        "state": "Mumbai"
    },
    {
        "id": "30",
        "name": "Navi Mumbai - Vashi",
        "state": "Mumbai"
    },
    {
        "id": "31",
        "name": "Lower Parel",
        "state": "Mumbai"
    },
    {
        "id": "32",
        "name": "Andheri East",
        "state": "Mumbai"
    },
    {
        "id": "33",
        "name": "Dharam Peth",
        "state": "Nagpur"
    },
    {
        "id": "34",
        "name": "Mahatma Nagar",
        "state": "Nashik"
    },
	{
        "id": "35",
        "name": "Deccan - J.M. Road",
        "state": "Pune"
    },
    {
        "id": "36",
        "name": "Pimple Saudagar",
        "state": "Pune"
    },
    {
        "id": "37",
        "name": "Baner Road",
        "state": "Pune"
    },
    {
        "id": "38",
        "name": "Magarpatta City",
        "state": "Pune"
    },
    {
        "id": "39",
        "name": "Koregaon Park",
        "state": "Pune"
    },
    {
        "id": "40",
        "name": "Bavdhan",
        "state": "Pune"
    },
    {
        "id": "41",
        "name": "Viman Nagar",
        "state": "Pune"
    },
    {
        "id": "42",
        "name": "University Road, Vesu",
        "state": "Surat"
    },
    {
        "id": "43",
        "name": "Race Course Circle",
        "state": "Vadodara"
    },
    {
        "id": "44",
        "name": "Chandigarh - Sector 34A",
        "state": "Chandigarh"
    },
    {
        "id": "45",
        "name": "Yamuna Vihar",
        "state": "Delhi"
    },
    {
        "id": "46",
        "name": "Dwarka Mor",
        "state": "Delhi"
    },
    {
        "id": "47",
        "name": "Ghitorni",
        "state": "Delhi"
    },
	{
        "id": "48",
        "name": "Laxmi Nagar",
        "state": "Delhi"
    },
    {
        "id": "49",
        "name": "South Ext Part 1",
        "state": "Delhi"
    },
    {
        "id": "50",
        "name": "Tilak Nagar",
        "state": "Delhi"
    },
    {
        "id": "51",
        "name": "Delhi North Campus",
        "state": "Delhi"
    },
    {
        "id": "52",
        "name": "Rohini Sector 11",
        "state": "Delhi"
    },
    {
        "id": "53",
        "name": "Kalkaji",
        "state": "Delhi"
    },
    {
        "id": "54",
        "name": "Shahdara",
        "state": "Delhi"
    },
    {
        "id": "55",
        "name": "Ramesh Nagar",
        "state": "Delhi"
    },
    {
        "id": "56",
        "name": "Mayur Vihar Ph 1",
        "state": "Delhi"
    },
    {
        "id": "57",
        "name": "Connaught Place",
        "state": "Delhi"
    },
    {
        "id": "58",
        "name": "Gurgaon - DLF Cyber City",
        "state": "Delhi"
    },
    {
        "id": "59",
        "name": "Gurgaon - Huda City Centre",
        "state": "Delhi"
    },
    {
        "id": "60",
        "name": "Noida - Sector 63",
        "state": "Delhi"
    },
	{
        "id": "61",
        "name": "Noida - Sector 2",
        "state": "Delhi"
    },
	{
        "id": "62",
        "name": "Noida - Sector 18",
        "state": "Delhi"
    },
	{
        "id": "63",
        "name": "Mansarovar",
        "state": "Jaipur"
    },
	{
        "id": "64",
        "name": "JLN Marg",
        "state": "Jaipur"
    },
	{
        "id": "65",
        "name": "C Scheme",
        "state": "Jaipur"
    },
	{
        "id": "66",
        "name": "Ratanada",
        "state": "Jodhpur"
    },
	{
        "id": "67",
        "name": "Gomti Nagar",
        "state": "Lucknow"
    },
	{
        "id": "68",
        "name": "Ludhiana ",
        "state": "Ludhiana "
    },
	{
        "id": "69",
        "name": "SAS Nagar",
        "state": "Mohali"
    },
	{
        "id": "71",
        "name": "Bikaner",
        "state": "Bikaner"
    },
	{
        "id": "72",
        "name": "Sahibabad",
        "state": "Ghaziabad"
    },
	{
        "id": "73",
        "name": "Bannerghatta Road",
        "state": "Bangalore"
    },
	{
        "id": "74",
        "name": "Sarjapur Road - Bellandur",
        "state": "Bangalore"
    },
	{
        "id": "75",
        "name": "Jayanagar",
        "state": "Bangalore"
    },
	{
        "id": "76",
        "name": "Indiranagar",
        "state": "Bangalore"
    },
	{
        "id": "77",
        "name": "Indiranagar 100 Feet Road",
        "state": "Bangalore"
    },
	{
        "id": "78",
        "name": "Marathahalli",
        "state": "Bangalore"
    },
	{
        "id": "79",
        "name": "Koramangala - Raheja Arcade",
        "state": "Bangalore"
    },
	{
        "id": "80",
        "name": "Kammanahalli",
        "state": "Bangalore"
    },
	{
        "id": "81",
        "name": "S.R. Nagar",
        "state": "Hyderabad"
    },
	{
        "id": "82",
        "name": "Gachibowli",
        "state": "Hyderabad"
    },
	{
	    "id": "83",
        "name": "Kukatpally",
        "state": "Hyderabad"
    },
	{
	    "id": "84",
        "name": "Whitefield",
        "state": "Bangalore"
    }
	
	
]